<?xml version="1.0" encoding="utf-8"?>
<!-- Generator: Adobe Illustrator 21.1.0, SVG Export Plug-In . SVG Version: 6.00 Build 0)  -->
<svg version="1.1" id="Capa_1" xmlns="http://www.w3.org/2000/svg" xmlns:xlink="http://www.w3.org/1999/xlink" x="0px" y="0px"
	 viewBox="0 0 459.3 459.3" style="enable-background:new 0 0 459.3 459.3;" xml:space="preserve">
<style type="text/css">
	.st0{fill:none;stroke:#FFFFFF;stroke-width:10;stroke-miterlimit:10;}
</style>
<g>
	<path class="st0" d="M459.2,290.2l-3.1-14.6c-0.5-2.2-2.6-3.5-4.8-3.1l-2.5,0.5l-8.9-56.7c0-0.1,0-0.2,0-0.2
		c-1.6-7.3-8.2-12.6-15.6-12.6c-1.1,0-2.3,0.1-3.4,0.4l-7.4,1.6L384,123.2c-0.7-1.9-2.6-3-4.6-2.6l-141.8,30.7
		c-2,0.4-3.3,2.2-3.1,4.2l7.3,87.2l-7.4,1.6c-3.2,0.7-6,2.3-8.1,4.5c-0.6-8.3-7.5-14.9-15.9-14.9h-7.6l-11.3-86.8
		c-0.3-2-2-3.5-4-3.5H42.2c-2,0-3.7,1.5-4,3.5L26.9,234h-7.6c-8.8,0-16,7.2-16,16c0,0.1,0,0.2,0,0.2l3.3,57.3H4c-2.2,0-4,1.8-4,4
		v14.9c0,2.2,1.8,4,4,4h16.9v19.4c0,8.8,7.2,16,16,16h10.4c8.8,0,16-7.2,16-16v-19.4h102.7v19.4c0,8.8,7.2,16,16,16h10.4
		c8.8,0,16-7.2,16-16v-19.4h16.9c2.2,0,4-1.8,4-4v-14.9c0-2.2-1.8-4-4-4h-2.6l2-34l12.6,45.3l-2.5,0.5c-1,0.2-1.9,0.9-2.5,1.7
		c-0.6,0.9-0.8,2-0.5,3l3.1,14.6c0.4,1.9,2.1,3.2,3.9,3.2c0.3,0,0.6,0,0.9-0.1l16.6-3.6l4.1,18.9c1.6,7.3,8.2,12.6,15.6,12.6
		c1.1,0,2.3-0.1,3.4-0.4l10.2-2.2c4.2-0.9,7.8-3.4,10.1-7s3.1-7.9,2.2-12l-4.1-18.9l100.4-21.7l4.1,18.9c1.6,7.3,8.2,12.6,15.6,12.6
		c1.1,0,2.3-0.1,3.4-0.4l10.2-2.2c8.6-1.9,14.1-10.4,12.3-19l-4.1-18.9l16.6-3.6c1-0.2,1.9-0.9,2.5-1.7
		C459.2,292.3,459.4,291.2,459.2,290.2z M51,161.8c0.3-2,2-3.5,4-3.5h119.5c2,0,3.7,1.5,4,3.5l9.4,72.1H41.6L51,161.8z M46.9,298.3
		c-10.4,0-18.9-8.5-18.9-18.9s8.5-18.9,18.9-18.9s18.9,8.5,18.9,18.9S57.3,298.3,46.9,298.3z M182.5,298.3
		c-10.4,0-18.9-8.5-18.9-18.9s8.5-18.9,18.9-18.9c10.4,0,18.9,8.5,18.9,18.9C201.4,289.8,192.9,298.3,182.5,298.3z M274.9,301.4
		c-1.3,0.3-2.7,0.4-4,0.4c-8.8,0-16.6-6.3-18.4-14.9c-2.2-10.2,4.3-20.3,14.5-22.5c1.3-0.3,2.7-0.4,4-0.4c8.8,0,16.6,6.3,18.4,14.9
		C291.5,289.1,285,299.2,274.9,301.4z M256.1,239.6l-6.1-72.5c-0.2-2,1.2-3.8,3.1-4.2l116.8-25.3c2-0.4,3.9,0.7,4.6,2.6l24.5,68.5
		L256.1,239.6z M419.3,264.5c-2.7,4.2-7,7.2-11.9,8.2c-1.3,0.3-2.7,0.4-4,0.4c-8.8,0-16.6-6.3-18.4-14.9c-1.1-4.9-0.1-10,2.6-14.2
		s7-7.2,11.9-8.2c1.3-0.3,2.7-0.4,4-0.4c8.8,0,16.6,6.3,18.4,14.9C422.9,255.2,422,260.2,419.3,264.5z"/>
	<path class="st0" d="M238,355.8c-2-2.7-5.7-3.2-8.4-1.2l-48.4,36.1c-2.7,2-3.2,5.7-1.2,8.4c1.2,1.6,3,2.4,4.8,2.4
		c1.2,0,2.5-0.4,3.6-1.2l48.4-36.1C239.4,362.2,239.9,358.4,238,355.8z"/>
	<path class="st0" d="M252.9,367.5c-3.2-0.9-6.5,0.9-7.4,4.1l-6.9,23.8c-0.9,3.2,0.9,6.5,4.1,7.4c0.6,0.2,1.1,0.2,1.7,0.2
		c2.6,0,5-1.7,5.8-4.3L257,375C257.9,371.8,256.1,368.4,252.9,367.5z"/>
	<path class="st0" d="M211.3,150.2c1.1,2,3.2,3.2,5.3,3.2c1,0,1.9-0.2,2.8-0.7c2.9-1.6,4-5.2,2.4-8.1l-43.1-80
		c-1.6-2.9-5.2-4-8.1-2.4c-2.9,1.6-4,5.2-2.4,8.1L211.3,150.2z"/>
	<path class="st0" d="M123.9,105.1l43.1,19.2c0.8,0.4,1.6,0.5,2.4,0.5c2.3,0,4.5-1.3,5.5-3.6c1.4-3,0-6.6-3-7.9l-43.1-19.2
		c-3-1.3-6.6,0-7.9,3C119.5,100.2,120.9,103.7,123.9,105.1z"/>
	<path class="st0" d="M227.2,110c0.1,0,0.2,0,0.3,0c3.3-0.1,5.9-2.9,5.7-6.3l-2.3-53.8c-0.1-3.3-2.9-5.9-6.3-5.7
		c-3.3,0.1-5.9,2.9-5.7,6.3l2.3,53.8C221.4,107.4,224,110,227.2,110z"/>
</g>
</svg>
