<svg xmlns="http://www.w3.org/2000/svg" viewBox="0 0 75.26 69.29" fill="#0052CC">
  <title>Group 171</title>
  <g id="Layer_2" data-name="Layer 2">
    <g id="Layer_6" data-name="Layer 6">
      <g id="Group_171" data-name="Group 171">
        <path id="Path_839" data-name="Path 839" d="M23.84,36.6H27a1.5,1.5,0,0,0,0-3H23.84a1.5,1.5,0,1,0,0,3Z"/>
        <path id="Path_840" data-name="Path 840" d="M36,36.6h3.16a1.5,1.5,0,0,0,0-3H36a1.5,1.5,0,0,0,0,3Z"/>
        <path id="Path_841" data-name="Path 841" d="M48.1,36.6h3.16a1.5,1.5,0,0,0,0-3H48.1a1.5,1.5,0,0,0,0,3Z"/>
        <path id="Path_842" data-name="Path 842" d="M23.84,45H27a1.5,1.5,0,0,0,0-3H23.84a1.5,1.5,0,1,0,0,3Z"/>
        <path id="Path_843" data-name="Path 843" d="M36,45h3.16a1.5,1.5,0,0,0,0-3H36a1.5,1.5,0,0,0,0,3Z"/>
        <path id="Path_844" data-name="Path 844" d="M48.1,45h3.16a1.5,1.5,0,0,0,0-3H48.1a1.5,1.5,0,0,0,0,3Z"/>
        <path id="Path_845" data-name="Path 845" d="M33.77,20.75a1.5,1.5,0,0,0,1.5-1.5v-4h5v4a1.5,1.5,0,0,0,3,0v-11a1.5,1.5,0,0,0-3,0v4h-5v-4a1.5,1.5,0,0,0-3,0v11A1.51,1.51,0,0,0,33.77,20.75Z"/>
        <path id="Path_846" data-name="Path 846" d="M73.76,66.29H71V32.24a5,5,0,0,0-5.11-4.76h-4V17.37a5,5,0,0,0-5.12-4.76H52.07V5.68A5.7,5.7,0,0,0,46.38,0H29.15a5.69,5.69,0,0,0-5.68,5.68v6.93H18.54a5,5,0,0,0-5.12,4.76V27.49H9.08A5,5,0,0,0,4,32.24V66.29H1.5a1.5,1.5,0,0,0,0,3H73.76a1.5,1.5,0,0,0,0-3ZM26.47,5.69A2.7,2.7,0,0,1,29.15,3H46.38a2.7,2.7,0,0,1,2.69,2.69V21.81a2.69,2.69,0,0,1-2.69,2.68H29.15a2.68,2.68,0,0,1-2.68-2.68ZM7,32.24a2,2,0,0,1,2.12-1.75h4.34V38.2a1.5,1.5,0,0,0,3,0V17.37a2,2,0,0,1,2.12-1.76h4.93V21.8a5.7,5.7,0,0,0,5.68,5.69H46.38a5.71,5.71,0,0,0,5.69-5.69V15.61h4.74a2,2,0,0,1,2.12,1.76V28.53a1.3,1.3,0,0,0,0,.91V50.92a1.5,1.5,0,0,0,3,0V30.49h4A2,2,0,0,1,68,32.24V66.29H61.93v-9a1.5,1.5,0,0,0-3,0v9H47.47V55.62a3.69,3.69,0,0,0-3.69-3.69H31.46a3.69,3.69,0,0,0-3.68,3.69V66.29H16.32V44.51a1.5,1.5,0,0,0-3,0V66.29H7Zm30.66,25a1.5,1.5,0,0,0-1.5,1.5v7.53H30.78V55.62a.67.67,0,0,1,.68-.68H43.78a.68.68,0,0,1,.69.68h0V66.29H39.12V58.76a1.48,1.48,0,0,0-1.49-1.5Z"/>
      </g>
    </g>
  </g>
</svg>
