<svg xmlns="http://www.w3.org/2000/svg" viewBox="0 0 63.72 64.67" fill="#0052CC">
  <title>Group 169</title>
  <g id="Layer_2" data-name="Layer 2">
    <g id="Layer_6" data-name="Layer 6">
      <g id="Group_169" data-name="Group 169">
        <path id="Path_823" data-name="Path 823" d="M62.88,15.15,32.51.15a1.55,1.55,0,0,0-1.33,0L.83,15.15A1.51,1.51,0,0,0,0,16.5v6.88a1.5,1.5,0,0,0,1.5,1.5H3.38V58.76a5.77,5.77,0,0,0,5.78,5.77h4a1.4,1.4,0,0,0,1.23,0H54.24A5.77,5.77,0,0,0,60,58.76V24.88h2.2a1.5,1.5,0,0,0,1.5-1.5V16.5A1.52,1.52,0,0,0,62.88,15.15ZM48.46,61.53H15.25V28.22a3.31,3.31,0,0,1,3.31-3.3h26.6a3.32,3.32,0,0,1,3.31,3.3ZM60.71,21.88H58.52a1.5,1.5,0,0,0-1.5,1.5V58.76a2.77,2.77,0,0,1-2.78,2.77H51.46V28.22a6.3,6.3,0,0,0-6.31-6.3H18.55a6.3,6.3,0,0,0-6.3,6.3V61.53H9.15a2.77,2.77,0,0,1-2.78-2.77V23.38a1.5,1.5,0,0,0-1.5-1.5H3V17.43L31.84,3.17,60.71,17.43Z"/>
        <path id="Path_824" data-name="Path 824" d="M44,29.76H19.73a1.5,1.5,0,0,0,0,3H44a1.5,1.5,0,1,0,0-3Z"/>
        <path id="Path_825" data-name="Path 825" d="M44,37.82H19.73a1.5,1.5,0,1,0,0,3H44a1.5,1.5,0,0,0,0-3Z"/>
        <path id="Path_826" data-name="Path 826" d="M44,45.89H19.73a1.5,1.5,0,0,0,0,3H44a1.5,1.5,0,1,0,0-3Z"/>
        <path id="Path_827" data-name="Path 827" d="M44,54H19.73a1.5,1.5,0,0,0,0,3H44a1.5,1.5,0,1,0,0-3Z"/>
        <path id="Path_828" data-name="Path 828" d="M25.07,14.94a1.5,1.5,0,0,0,1.5,1.5H37.14a1.5,1.5,0,0,0,0-3H26.58a1.51,1.51,0,0,0-1.51,1.5Z"/>
      </g>
    </g>
  </g>
</svg>
