<?xml version="1.0" encoding="UTF-8"?>
<svg width="33px" height="30px" viewBox="0 0 33 30" version="1.1" xmlns="http://www.w3.org/2000/svg" xmlns:xlink="http://www.w3.org/1999/xlink">
    <!-- Generator: Sketch 58 (84663) - https://sketch.com -->
    <title>fax</title>
    <desc>Created with Sketch.</desc>
    <g id="Page-1" stroke="none" stroke-width="1" fill="none" fill-rule="evenodd">
        <g id="تماس-با-ما" transform="translate(-1046.000000, -876.000000)">
            <g id="fax" transform="translate(1046.000000, 876.422594)">
                <path d="M14.4792042,17.6570711 C13.7066686,17.6570711 13.0779909,18.2229382 13.0779909,18.9182905 C13.0779909,19.6136428 13.7066686,20.1795099 14.4792042,20.1795099 C15.2517399,20.1795099 15.8804176,19.6136428 15.8804176,18.9182905 C15.8804176,18.2229382 15.2517399,17.6570711 14.4792042,17.6570711 Z M14.4792042,19.338697 C14.2218481,19.338697 14.0121331,19.1503549 14.0121331,18.9182905 C14.0121331,18.6862261 14.2218481,18.497884 14.4792042,18.497884 C14.7365604,18.497884 14.9462754,18.6862261 14.9462754,18.9182905 C14.9462754,19.1503549 14.7365604,19.338697 14.4792042,19.338697 Z" id="Shape" fill="#9CACA5" fill-rule="nonzero"></path>
                <path d="M9.37216603,8.95648536 C10.4767355,8.95648536 11.372166,9.85191586 11.372166,10.9564854 L11.372,11.5144854 L30.6949773,11.5154812 C31.7995468,11.5154812 32.6949773,12.4109117 32.6949773,13.5154812 L32.6949773,27.4284519 C32.6949773,28.5330214 31.7995468,29.4284519 30.6949773,29.4284519 L4.84304151,29.4284519 C3.73847201,29.4284519 2.84304151,28.5330214 2.84304151,27.4284519 L2.843,26.8684854 L2,26.8694561 C0.8954305,26.8694561 1.3527075e-16,25.9740256 0,24.8694561 L0,16.074477 C-1.3527075e-16,14.9699075 0.8954305,14.074477 2,14.074477 L2.843,14.0734854 L2.84304151,13.5154812 C2.84304151,12.6121144 3.44196868,11.8486346 4.2643992,11.6004655 L4.26456226,10.9564854 C4.26456226,9.85191586 5.15999276,8.95648536 6.26456226,8.95648536 L9.37216603,8.95648536 Z" id="Combined-Shape" fill="#E0E1E1"></path>
                <rect id="Rectangle" fill="#FFFFFF" x="14.2152075" y="1.27949791" width="14.2152075" height="13.0508787"></rect>
                <path d="M19.1499153,17.6570711 C18.3773797,17.6570711 17.748702,18.2229382 17.748702,18.9182905 C17.748702,19.6136428 18.3773797,20.1795099 19.1499153,20.1795099 C19.9224509,20.1795099 20.5511286,19.6136428 20.5511286,18.9182905 C20.5511286,18.2229382 19.9224509,17.6570711 19.1499153,17.6570711 Z M19.1499153,19.338697 C18.8925591,19.338697 18.6828442,19.1503549 18.6828442,18.9182905 C18.6828442,18.6862261 18.8925591,18.497884 19.1499153,18.497884 C19.4072715,18.497884 19.6169864,18.6862261 19.6169864,18.9182905 C19.6169864,19.1503549 19.4072715,19.338697 19.1499153,19.338697 Z" id="Shape" fill="#9CACA5" fill-rule="nonzero"></path>
                <path d="M22.8864841,17.6570711 C22.1139485,17.6570711 21.4852708,18.2229382 21.4852708,18.9182905 C21.4852708,19.6136428 22.1139485,20.1795099 22.8864841,20.1795099 C23.6590197,20.1795099 24.2876974,19.6136428 24.2876974,18.9182905 C24.2876974,18.2229382 23.6590197,17.6570711 22.8864841,17.6570711 Z M22.8864841,19.338697 C22.629128,19.338697 22.419413,19.1503549 22.419413,18.9182905 C22.419413,18.6862261 22.629128,18.497884 22.8864841,18.497884 C23.1438403,18.497884 23.3535552,18.6862261 23.3535552,18.9182905 C23.3535552,19.1503549 23.1438403,19.338697 22.8864841,19.338697 Z" id="Shape" fill="#9CACA5" fill-rule="nonzero"></path>
                <path d="M14.4792042,21.0203228 C13.7066686,21.0203228 13.0779909,21.5861899 13.0779909,22.2815421 C13.0779909,22.9768944 13.7066686,23.5427615 14.4792042,23.5427615 C15.2517399,23.5427615 15.8804176,22.9768944 15.8804176,22.2815421 C15.8804176,21.5861899 15.2517399,21.0203228 14.4792042,21.0203228 Z M14.4792042,22.7019486 C14.2218481,22.7019486 14.0121331,22.5136065 14.0121331,22.2815421 C14.0121331,22.0494778 14.2218481,21.8611357 14.4792042,21.8611357 C14.7365604,21.8611357 14.9462754,22.0494778 14.9462754,22.2815421 C14.9462754,22.5136065 14.7365604,22.7019486 14.4792042,22.7019486 Z" id="Shape" fill="#9CACA5" fill-rule="nonzero"></path>
                <path d="M19.1499153,21.0203228 C18.3773797,21.0203228 17.748702,21.5861899 17.748702,22.2815421 C17.748702,22.9768944 18.3773797,23.5427615 19.1499153,23.5427615 C19.9224509,23.5427615 20.5511286,22.9768944 20.5511286,22.2815421 C20.5511286,21.5861899 19.9224509,21.0203228 19.1499153,21.0203228 Z M19.1499153,22.7019486 C18.8925591,22.7019486 18.6828442,22.5136065 18.6828442,22.2815421 C18.6828442,22.0494778 18.8925591,21.8611357 19.1499153,21.8611357 C19.4072715,21.8611357 19.6169864,22.0494778 19.6169864,22.2815421 C19.6169864,22.5136065 19.4072715,22.7019486 19.1499153,22.7019486 Z" id="Shape" fill="#9CACA5" fill-rule="nonzero"></path>
                <path d="M22.8864841,21.0203228 C22.1139485,21.0203228 21.4852708,21.5861899 21.4852708,22.2815421 C21.4852708,22.9768944 22.1139485,23.5427615 22.8864841,23.5427615 C23.6590197,23.5427615 24.2876974,22.9768944 24.2876974,22.2815421 C24.2876974,21.5861899 23.6590197,21.0203228 22.8864841,21.0203228 Z M22.8864841,22.7019486 C22.629128,22.7019486 22.419413,22.5136065 22.419413,22.2815421 C22.419413,22.0494778 22.629128,21.8611357 22.8864841,21.8611357 C23.1438403,21.8611357 23.3535552,22.0494778 23.3535552,22.2815421 C23.3535552,22.5136065 23.1438403,22.7019486 22.8864841,22.7019486 Z" id="Shape" fill="#9CACA5" fill-rule="nonzero"></path>
                <path d="M14.4792042,25.2243873 C13.7066686,25.2243873 13.0779909,25.7902544 13.0779909,26.4856067 C13.0779909,27.180959 13.7066686,27.7468261 14.4792042,27.7468261 C15.2517399,27.7468261 15.8804176,27.180959 15.8804176,26.4856067 C15.8804176,25.7902544 15.2517399,25.2243873 14.4792042,25.2243873 Z M14.4792042,26.9060132 C14.2218481,26.9060132 14.0121331,26.7176711 14.0121331,26.4856067 C14.0121331,26.2535423 14.2218481,26.0652002 14.4792042,26.0652002 C14.7365604,26.0652002 14.9462754,26.2535423 14.9462754,26.4856067 C14.9462754,26.7176711 14.7365604,26.9060132 14.4792042,26.9060132 Z" id="Shape" fill="#9CACA5" fill-rule="nonzero"></path>
                <path d="M19.1499153,25.2243873 C18.3773797,25.2243873 17.748702,25.7902544 17.748702,26.4856067 C17.748702,27.180959 18.3773797,27.7468261 19.1499153,27.7468261 C19.9224509,27.7468261 20.5511286,27.180959 20.5511286,26.4856067 C20.5511286,25.7902544 19.9224509,25.2243873 19.1499153,25.2243873 Z M19.1499153,26.9060132 C18.8925591,26.9060132 18.6828442,26.7176711 18.6828442,26.4856067 C18.6828442,26.2535423 18.8925591,26.0652002 19.1499153,26.0652002 C19.4072715,26.0652002 19.6169864,26.2535423 19.6169864,26.4856067 C19.6169864,26.7176711 19.4072715,26.9060132 19.1499153,26.9060132 Z" id="Shape" fill="#9CACA5" fill-rule="nonzero"></path>
                <path d="M22.8864841,25.2243873 C22.1139485,25.2243873 21.4852708,25.7902544 21.4852708,26.4856067 C21.4852708,27.180959 22.1139485,27.7468261 22.8864841,27.7468261 C23.6590197,27.7468261 24.2876974,27.180959 24.2876974,26.4856067 C24.2876974,25.7902544 23.6590197,25.2243873 22.8864841,25.2243873 Z M22.8864841,26.9060132 C22.629128,26.9060132 22.419413,26.7176711 22.419413,26.4856067 C22.419413,26.2535423 22.629128,26.0652002 22.8864841,26.0652002 C23.1438403,26.0652002 23.3535552,26.2535423 23.3535552,26.4856067 C23.3535552,26.7176711 23.1438403,26.9060132 22.8864841,26.9060132 Z" id="Shape" fill="#9CACA5" fill-rule="nonzero"></path>
                <path d="M29.1452369,25.2243873 L26.9032956,25.2243873 C25.9762529,25.2243873 25.2218397,25.7902544 25.2218397,26.4856067 C25.2218397,27.180959 25.9762529,27.7468261 26.9032956,27.7468261 L29.1452369,27.7468261 C30.0722797,27.7468261 30.8266929,27.180959 30.8266929,26.4856067 C30.8266929,25.7902544 30.0722797,25.2243873 29.1452369,25.2243873 Z M29.1452369,26.9060132 L26.9032956,26.9060132 C26.5944682,26.9060132 26.3428103,26.7176711 26.3428103,26.4856067 C26.3428103,26.2535423 26.5944682,26.0652002 26.9032956,26.0652002 L29.1452369,26.0652002 C29.4540643,26.0652002 29.7057223,26.2535423 29.7057223,26.4856067 C29.7057223,26.7176711 29.4540643,26.9060132 29.1452369,26.9060132 Z" id="Shape" fill="#9CACA5" fill-rule="nonzero"></path>
                <path d="M29.1452369,21.0203228 L26.9032956,21.0203228 C25.9762529,21.0203228 25.2218397,21.5861899 25.2218397,22.2815421 C25.2218397,22.9768944 25.9762529,23.5427615 26.9032956,23.5427615 L29.1452369,23.5427615 C30.0722797,23.5427615 30.8266929,22.9768944 30.8266929,22.2815421 C30.8266929,21.5861899 30.0722797,21.0203228 29.1452369,21.0203228 Z M29.1452369,22.7019486 L26.9032956,22.7019486 C26.5944682,22.7019486 26.3428103,22.5136065 26.3428103,22.2815421 C26.3428103,22.0494778 26.5944682,21.8611357 26.9032956,21.8611357 L29.1452369,21.8611357 C29.4540643,21.8611357 29.7057223,22.0494778 29.7057223,22.2815421 C29.7057223,22.5136065 29.4540643,22.7019486 29.1452369,22.7019486 Z" id="Shape" fill="#9CACA5" fill-rule="nonzero"></path>
                <path d="M8.40727988,12.6121937 L9.34142209,12.6121937 L9.34142209,10.5101614 C9.34142209,10.2776766 9.13217424,10.0897549 8.87435099,10.0897549 L6.53899547,10.0897549 L6.53899547,10.9305678 L8.40727988,10.9305678 L8.40727988,12.6121937 Z" id="Path" fill="#9CACA5" fill-rule="nonzero"></path>
                <path d="M32.167639,6.17048185 C32.4587298,6.17048185 32.6949773,5.9583122 32.6949773,5.6958294 L32.6949773,1.8986098 C32.6949773,0.851526495 31.7489323,0 30.585624,0 L15.8201503,0 C14.6568419,0 13.7107969,0.851526495 13.7107969,1.8986098 L13.7107969,11.3916588 L11.6014436,11.3916588 L11.6014436,9.96770144 C11.6014436,9.18262629 10.8916462,8.5437441 10.0194285,8.5437441 L5.80072178,8.5437441 C4.92850416,8.5437441 4.21870675,9.18262629 4.21870675,9.96770144 L4.21870675,11.4395987 C3.01690267,11.6603121 2.10935338,12.61911 2.10935338,13.764921 L2.10935338,14.2875134 C0.90754929,14.5082268 0,15.4670247 0,16.6128357 L0,25.1565798 C0,26.3175797 0.932334192,27.2825482 2.1578685,27.4861741 C2.38409665,28.5892664 3.45617551,29.4284519 4.7460451,29.4284519 L30.0582856,29.4284519 C31.5121574,29.4284519 32.6949773,28.3638064 32.6949773,27.0551896 L32.6949773,13.764921 C32.6949773,12.4563042 31.5121574,11.3916588 30.0582856,11.3916588 L29.5309473,11.3916588 L29.5309473,6.17048185 L32.167639,6.17048185 Z M31.6403006,1.8986098 L31.6403006,5.22117695 L29.5309473,5.22117695 L29.5309473,1.8986098 C29.5309473,1.37506815 30.0039698,0.949304899 30.585624,0.949304899 C31.1672781,0.949304899 31.6403006,1.37506815 31.6403006,1.8986098 Z M15.8201503,0.949304899 L28.7694707,0.949304899 C28.5880663,1.2298245 28.4762706,1.55116421 28.4762706,1.8986098 L28.4762706,14.2395735 L14.7654736,14.2395735 L14.7654736,1.8986098 C14.7654736,1.37506815 15.2384961,0.949304899 15.8201503,0.949304899 Z M5.27338344,9.96770144 C5.27338344,9.70569329 5.51015836,9.49304899 5.80072178,9.49304899 L10.0194285,9.49304899 C10.309992,9.49304899 10.5467669,9.70569329 10.5467669,9.96770144 L10.5467669,24.2072749 C10.5467669,24.4692831 10.309992,24.6819274 10.0194285,24.6819274 L5.80072178,24.6819274 C5.51015836,24.6819274 5.27338344,24.4692831 5.27338344,24.2072749 L5.27338344,9.96770144 Z M4.21870675,12.4282997 L4.21870675,24.2072749 C4.21870675,24.9923501 4.92850416,25.6312323 5.80072178,25.6312323 L7.28570656,25.6312323 C7.06738849,26.1823038 6.48731631,26.5805372 5.80072178,26.5805372 L3.16403006,26.5805372 L3.16403006,13.764921 C3.16403006,13.1469236 3.60646693,12.6248059 4.21870675,12.4282997 Z M1.05467669,25.1565798 L1.05467669,16.6128357 C1.05467669,15.9948383 1.49711356,15.4727206 2.10935338,15.2762144 L2.10935338,26.4927265 C1.49711356,26.296695 1.05467669,25.7745773 1.05467669,25.1565798 Z M30.0582856,12.3409637 C30.9305032,12.3409637 31.6403006,12.9798459 31.6403006,13.764921 L31.6403006,27.0551896 C31.6403006,27.8402648 30.9305032,28.479147 30.0582856,28.479147 L4.7460451,28.479147 C4.05945057,28.479147 3.47937839,28.0809136 3.26106032,27.5298421 L5.80072178,27.5298421 C7.07371655,27.5298421 8.13894,26.7129652 8.38415233,25.6312323 L10.0194285,25.6312323 C10.8916462,25.6312323 11.6014436,24.9923501 11.6014436,24.2072749 L11.6014436,12.3409637 L13.7107969,12.3409637 L13.7107969,14.2395735 L12.6561203,14.2395735 L12.6561203,15.1888784 L30.585624,15.1888784 L30.585624,14.2395735 L29.5309473,14.2395735 L29.5309473,12.3409637 L30.0582856,12.3409637 Z" id="Shape" fill="#9CACA5" fill-rule="nonzero"></path>
                <polygon id="Path" fill="#9CACA5" fill-rule="nonzero" points="15.8804176 12.6121937 27.0901241 12.6121937 27.0901241 13.4530066 15.8804176 13.4530066"></polygon>
                <polygon id="Path" fill="#9CACA5" fill-rule="nonzero" points="15.8804176 10.0897549 27.0901241 10.0897549 27.0901241 10.9305678 15.8804176 10.9305678"></polygon>
                <polygon id="Path" fill="#9CACA5" fill-rule="nonzero" points="15.8804176 8.40812911 27.0901241 8.40812911 27.0901241 9.24894202 15.8804176 9.24894202"></polygon>
                <path d="M16.4253338,7.5673162 L21.8744967,7.5673162 C22.1752905,7.5673162 22.419413,7.34807423 22.419413,7.076842 L22.419413,2.17210002 C22.419413,1.90086779 22.1752905,1.68162582 21.8744967,1.68162582 L16.4253338,1.68162582 C16.1245401,1.68162582 15.8804176,1.90086779 15.8804176,2.17210002 L15.8804176,7.076842 C15.8804176,7.34807423 16.1245401,7.5673162 16.4253338,7.5673162 Z M16.9702501,2.66257422 L21.3295804,2.66257422 L21.3295804,6.5863678 L16.9702501,6.5863678 L16.9702501,2.66257422 Z" id="Shape" fill="#9CACA5" fill-rule="nonzero"></path>
            </g>
        </g>
    </g>
</svg>