<?xml version="1.0" encoding="UTF-8"?>
<svg width="69px" height="79px" viewBox="0 0 69 79" version="1.1" xmlns="http://www.w3.org/2000/svg" xmlns:xlink="http://www.w3.org/1999/xlink">
    <!-- Generator: Sketch 58 (84663) - https://sketch.com -->
    <title>highway</title>
    <desc>Created with Sketch.</desc>
    <defs>
        <linearGradient x1="50%" y1="0%" x2="50%" y2="97.2520773%" id="linearGradient-1">
            <stop stop-color="#1862E1" offset="0%"></stop>
            <stop stop-color="#FFFFFF" stop-opacity="0.285702579" offset="100%"></stop>
        </linearGradient>
    </defs>
    <g id="Page-1" stroke="none" stroke-width="1" fill="none" fill-rule="evenodd">
        <g id="درباره-ما" transform="translate(-450.000000, -903.000000)">
            <g id="Group-7" transform="translate(63.000000, 905.000000)">
                <g id="highway" transform="translate(388.000000, 0.000000)">
                    <path d="M3.09677419,77 L28.2580645,77 C29.4144642,77 30.3548387,76.0596255 30.3548387,74.9032258 L30.3548387,71.7580645 C30.3548387,70.6016648 29.4144642,69.6612903 28.2580645,69.6612903 L28.2580645,12 L21.9677419,12 L21.9677419,49.588875 L19.38056,40.9657888 C18.887593,39.3179577 17.3989652,38.2096774 15.6774194,38.2096774 C13.9558735,38.2096774 12.4672457,39.3179577 11.9742787,40.9657888 L3.36501386,69.6612903 L3.09677419,69.6612903 C1.94037453,69.6612903 1,70.6016648 1,71.7580645 L1,74.9032258 C1,76.0596255 1.94037453,77 3.09677419,77 Z M24.0645161,14.0967742 L26.1612903,14.0967742 L26.1612903,63.5670284 L24.0645161,56.5784637 L24.0645161,14.0967742 Z M13.9830046,41.5677923 C14.2097798,40.8127284 14.8901053,40.3064516 15.6774194,40.3064516 C16.4647334,40.3064516 17.1450589,40.8127284 17.3718341,41.5677923 L21.7117881,56.0322581 L9.64305066,56.0322581 L13.9830046,41.5677923 Z M7.12702397,64.4193548 L17.7741935,64.4193548 L17.7741935,62.3225806 L7.7556467,62.3225806 L9.01391605,58.1290323 L22.3398989,58.1290323 L23.5981681,62.3225806 L19.8709677,62.3225806 L19.8709677,64.4193548 L24.2278147,64.4193548 L25.8003954,69.6612903 L5.55444333,69.6612903 L7.12702397,64.4193548 Z M3.09677419,71.7580645 L28.2580645,71.7580645 L28.2601121,74.9032258 L3.09677419,74.9032258 L3.09677419,71.7580645 Z M59.7096774,77 L66,77 L66,12 L59.7096774,12 L59.7096774,77 Z M61.8064516,14.0967742 L63.9032258,14.0967742 L63.9032258,74.9032258 L61.8064516,74.9032258 L61.8064516,14.0967742 Z M42.9354839,12 L42.9354839,21.4354839 L45.0322581,21.4354839 L45.0322581,12 L47.1290323,12 L47.1290323,23.5322581 L40.8387097,23.5322581 L40.8387097,12 L42.9354839,12 Z M40.8387097,65.4677419 L47.1290323,65.4677419 L47.1290323,77 L45.0322581,77 L45.0322581,67.5645161 L42.9354839,67.5645161 L42.9354839,77 L40.8387097,77 L40.8387097,65.4677419 Z M40.8387097,61.2741935 L47.1290323,61.2741935 L47.1290323,46.5967742 L40.8387097,46.5967742 L40.8387097,61.2741935 Z M42.9354839,48.6935484 L45.0322581,48.6935484 L45.0322581,59.1774194 L42.9354839,59.1774194 L42.9354839,48.6935484 Z M40.8387097,42.4032258 L47.1290323,42.4032258 L47.1290323,27.7258065 L40.8387097,27.7258065 L40.8387097,42.4032258 Z M42.9354839,29.8225806 L45.0322581,29.8225806 L45.0322581,40.3064516 L42.9354839,40.3064516 L42.9354839,29.8225806 Z" id="Shape" fill="#000000" fill-rule="nonzero"></path>
                    <polygon id="Path-4" fill="url(#linearGradient-1)" opacity="0.537202381" points="0 13.9680206 34.1142136 0 67 13.9680206 67 32 0 30.4943944"></polygon>
                    <polyline id="Path" stroke="#2C2E30" stroke-width="3" points="0 15 33.5 0 67 15"></polyline>
                </g>
            </g>
        </g>
    </g>
</svg>