<?xml version="1.0" encoding="UTF-8"?>
<svg width="24px" height="28px" viewBox="0 0 24 28" version="1.1" xmlns="http://www.w3.org/2000/svg" xmlns:xlink="http://www.w3.org/1999/xlink">
    <!-- Generator: Sketch 58 (84663) - https://sketch.com -->
    <title>location</title>
    <desc>Created with Sketch.</desc>
    <g id="Page-1" stroke="none" stroke-width="1" fill="none" fill-rule="evenodd" opacity="0.842052641">
        <g id="تماس-با-ما" transform="translate(-1050.000000, -746.000000)" fill-rule="nonzero">
            <g id="location" transform="translate(1051.000000, 746.809623)">
                <path d="M0.0228406505,10.4310766 C0.0228406505,4.74875361 5.03708781,0.142320671 11.2224752,0.142320671 C17.4078625,0.142320671 22.4221097,4.74875361 22.4221097,10.4310766 C22.4221097,18.0919823 13.396297,25.0777707 11.2355051,26.6406752 C9.08730866,25.0035557 0.0228406505,17.6662434 0.0228406505,10.4310766 Z" id="Path" stroke="#FF5630" fill="#FFEBE6"></path>
                <path d="M6.33549081,10.5392249 C6.33595622,8.03811492 8.52315794,6.0107016 11.2210977,6.0107016 C13.9190374,6.0107016 16.1063645,8.03785516 16.1069848,10.5389651 C16.1076049,13.0400751 13.9212833,15.0682324 11.2233438,15.0693105 C8.52623091,15.0658683 6.34084484,13.039569 6.33759674,10.5392249 L6.33549081,10.5392249 Z" id="Path" stroke="#FF5630" fill="#FFFFFF"></path>
                <path d="M8.0564991,3.35304512 C8.42460618,3.21408381 8.59622421,2.83630587 8.43981868,2.50925447 C8.28341316,2.18220308 7.85821167,2.02972595 7.49010458,2.16868726 C5.02361366,3.10306061 3.10295608,4.90345569 2.18486218,7.14174048 C2.0922152,7.35872701 2.1383002,7.60322894 2.30545873,7.78156014 C2.47261726,7.95989135 2.73493107,8.04440124 2.99188903,8.00270804 C3.24884699,7.96101484 3.46060728,7.79958317 3.54602942,7.58026901 C4.3267023,5.6775557 5.95963157,4.14717015 8.0564991,3.35304512 L8.0564991,3.35304512 Z" id="Path"></path>
            </g>
        </g>
    </g>
</svg>