<?xml version="1.0" encoding="UTF-8"?>
<svg width="16px" height="18px" viewBox="0 0 16 18" version="1.1" xmlns="http://www.w3.org/2000/svg" xmlns:xlink="http://www.w3.org/1999/xlink">
    <!-- Generator: Sketch 58 (84663) - https://sketch.com -->
    <title>return</title>
    <desc>Created with Sketch.</desc>
    <g id="Page-1" stroke="none" stroke-width="1" fill="none" fill-rule="evenodd">
        <g id="مسیریابی-۱" transform="translate(-307.000000, -486.000000)">
            <g id="Group-2" transform="translate(65.000000, 152.000000)">
                <g id="Group-28" transform="translate(223.887280, 317.000000)">
                    <g id="return" transform="translate(13.500000, 13.500000)">
                        <polygon id="Path" points="0 0 24 0 24 24 0 24"></polygon>
                        <path d="M5.71,15.71 L10.29,20.29 C10.68,20.68 11.32,20.68 11.71,20.29 C12.1,19.9 12.1,19.26 11.71,18.87 L8.83,16 L19,16 C19.55,16 20,15.55 20,15 L20,5 C20,4.45 19.55,4 19,4 C18.45,4 18,4.45 18,5 L18,14 L8.83,14 L11.71,11.13 C12.1,10.74 12.1,10.1 11.71,9.71 C11.32,9.32 10.68,9.32 10.29,9.71 L5.71,14.29 C5.32,14.68 5.32,15.32 5.71,15.71 Z" id="Path" fill="#FF5630" fill-rule="nonzero"></path>
                    </g>
                </g>
            </g>
        </g>
    </g>
</svg>