<svg xmlns="http://www.w3.org/2000/svg" viewBox="0 0 62.12 70.71" fill="#000">
  <title>Group 175</title>
  <g id="Layer_2" data-name="Layer 2">
    <g id="Layer_6" data-name="Layer 6">
      <g id="Group_175" data-name="Group 175">
        <path id="Path_858" data-name="Path 858" d="M60.38,18.66a1.5,1.5,0,1,0-2,2.28,2,2,0,0,1,.69,1.49V49.9a1.5,1.5,0,0,0,3,0V22.43A5,5,0,0,0,60.38,18.66Z"/>
        <path id="Path_859" data-name="Path 859" d="M60.62,54.37a1.5,1.5,0,0,0-1.5,1.5h0v9.89a2,2,0,0,1-1.95,1.95h-21V65.34a6.13,6.13,0,0,0,0-.74,1.5,1.5,0,0,0-3,.32v0a2.56,2.56,0,0,1,0,.39v2.37H6.94A4,4,0,0,1,3,63.77a3.25,3.25,0,0,1,3.25-3.24h6a3.48,3.48,0,0,0,3.48-3.48V41.38a1.5,1.5,0,0,0-3,0V57.05a.48.48,0,0,1-.48.48h-6A6.22,6.22,0,0,0,3,58.45V15.66a4,4,0,0,1,3.94-3.94h5.24a.56.56,0,0,1,.55.56V35.67a1.5,1.5,0,0,0,3,0V20.48h9.44a1.5,1.5,0,0,0,0-3H15.73v-5.2a3.55,3.55,0,0,0-3.55-3.56H6.94A7,7,0,0,0,0,15.66V63.77a7,7,0,0,0,6.94,6.94H57.17a5,5,0,0,0,4.95-5V55.87a1.5,1.5,0,0,0-1.5-1.5Z"/>
        <path id="Path_860" data-name="Path 860" d="M38.72,50.9a1.5,1.5,0,0,0-1.5-1.5H32.78a1.5,1.5,0,0,0,0,3h4.44a1.5,1.5,0,0,0,1.5-1.5Z"/>
        <path id="Path_861" data-name="Path 861" d="M35.19,34.69a1.5,1.5,0,0,0-1.5,1.5v1.15A4.63,4.63,0,0,0,34,39.1a1.47,1.47,0,0,0,1.4.95A1.26,1.26,0,0,0,36,40,1.5,1.5,0,0,0,36.82,38a1.88,1.88,0,0,1-.12-.66V36.19a1.5,1.5,0,0,0-1.5-1.5Z"/>
        <path id="Path_862" data-name="Path 862" d="M29.86,59H28a1.5,1.5,0,1,0,0,3h1.87a3.32,3.32,0,0,1,1.68.46,1.5,1.5,0,0,0,1.55-2.57l0,0A6.37,6.37,0,0,0,29.86,59Z"/>
        <path id="Path_863" data-name="Path 863" d="M22.11,54a1.46,1.46,0,0,0-1.55,1.38.13.13,0,0,0,0,.06v.24a6.26,6.26,0,0,0,2.31,4.88,1.5,1.5,0,0,0,2-2.25.27.27,0,0,0-.08-.07,3.31,3.31,0,0,1-1.22-2.56V55.6A1.49,1.49,0,0,0,22.11,54Z"/>
        <path id="Path_864" data-name="Path 864" d="M22.87,52.64A1.49,1.49,0,0,0,25,53a3.32,3.32,0,0,1,1.9-.6h1.49a1.5,1.5,0,0,0,0-3H26.86a6.29,6.29,0,0,0-3.63,1.15A1.5,1.5,0,0,0,22.87,52.64Z"/>
        <path id="Path_865" data-name="Path 865" d="M48.31,48.16a1.5,1.5,0,0,0,1.49-1.33c0-.24,0-.49,0-.74v-.62a6.34,6.34,0,0,0-1.38-3.94,1.5,1.5,0,1,0-2.37,1.83l0,0a3.32,3.32,0,0,1,.72,2.07v.62c0,.13,0,.26,0,.39a1.5,1.5,0,0,0,1.31,1.67Z"/>
        <path id="Path_866" data-name="Path 866" d="M41.65,52.4h1.88a6.33,6.33,0,0,0,3.2-.87A1.5,1.5,0,1,0,45.2,49h0a3.31,3.31,0,0,1-1.68.45H41.65a1.5,1.5,0,0,0,0,3Z"/>
        <path id="Path_867" data-name="Path 867" d="M43.41,42.16a1.5,1.5,0,0,0,0-3H39a1.5,1.5,0,0,0,0,3Z"/>
        <path id="Path_868" data-name="Path 868" d="M48.57,14.54a5.85,5.85,0,1,0-5.84,5.85A5.85,5.85,0,0,0,48.57,14.54Zm-8.68,0a2.84,2.84,0,1,1,2.84,2.85h0A2.85,2.85,0,0,1,39.89,14.54Z"/>
        <path id="Path_869" data-name="Path 869" d="M41.59,35.18a1.51,1.51,0,0,0,1.71,0c.54-.36,13.18-8.88,13.24-21.15A14.05,14.05,0,0,0,42.52,0h-.05A14.06,14.06,0,0,0,28.41,14C28.22,25.33,41,34.78,41.59,35.18ZM42.47,3a11,11,0,0,1,7.87,3.27,10.93,10.93,0,0,1,3.2,7.79c0,8.93-8.3,16-11,18-2.75-2.24-11.23-9.8-11.1-18A11.09,11.09,0,0,1,42.47,3Z"/>
      </g>
    </g>
  </g>
</svg>
